3585,,12,892
284674,,335,669
284677,,335,669
284678,,336,669
311297,,200,181
311298,,201,181
311809,,295,182
311810,,296,182
311811,,197,182
314625,,156,190
314626,,157,190
317441,,247,893
317442,,248,893
318977,,391,164
318978,,392,164
352001,,328,185
352002,,329,185
352003,,330,185
379394,,306,572
425985,,436,119
427010,,25,905
432641,,79,180
432643,,81,180
432897,,426,441
433153,,433,904
433154,,434,904
512513,,331,898
512514,,332,898
516098,,185,188
516099,,186,188
530177,,451,89
530178,,452,89
530946,,104,177
530947,,105,177
531713,,142,178
531714,,143,178
531715,,144,178
531969,,271,176
531970,,272,176
531971,,273,176
538114,,164,274
538625,,205,895
538626,,206,895
538627,,207,895
541443,,498,900
542721,,154,329
542722,,155,329
544257,,118,901
544258,,119,901
544259,,120,901
544514,,71,899
544515,,72,899
545281,,136,168
545282,,137,168
545283,,138,168
546049,,190,169
546050,,191,169
546051,,192,169
546817,,478,902
546819,,480,902
547586,,183,903
547841,,400,894
548097,,241,171
548098,,242,171
548610,,98,172
548611,,99,172
548865,,94,173
548866,,95,173
548867,,96,173
549377,,133,897
549379,,135,897
549889,,115,896
549891,,117,896
550401,,457,195
550402,,458,195
550913,,493,110
550914,,494,110
553985,,139,573
553986,,140,573
553987,,141,573
599554,,266,199
599555,,267,199
603138,,503,198
603139,,501,198
623618,,74,200
623619,,75,200
623873,,3,200
623874,,4,200
623875,,5,200
